<svg width="24" height="24" viewBox="0 0 24 24" fill="none" xmlns="http://www.w3.org/2000/svg">
<rect x="9" y="14" width="6" height="8" rx="0.6" stroke="#18224E" stroke-width="1.5" stroke-linecap="round"/>
<path fill-rule="evenodd" clip-rule="evenodd" d="M3 10.9563C3 9.72197 3.56989 8.55675 4.54424 7.79893L10.7721 2.95502C11.4943 2.39329 12.5057 2.39329 13.2279 2.95502L19.4558 7.79893C20.4301 8.55675 21 9.72197 21 10.9563V20C21 21.1046 20.1046 22 19 22H5C3.89543 22 3 21.1046 3 20V10.9563Z" stroke="#5174F3" stroke-width="1.5" stroke-linecap="round" stroke-linejoin="round"/>
</svg>
